<?xml version="1.0" encoding="UTF-8"?>
<svg width="372px" height="138px" viewBox="0 0 372 138" version="1.1" xmlns="http://www.w3.org/2000/svg" xmlns:xlink="http://www.w3.org/1999/xlink">
    <!-- Generator: Sketch 52.2 (67145) - http://www.bohemiancoding.com/sketch -->
    <title>about-gitlab-header</title>
    <desc>Created with Sketch.</desc>
    <g id="/company" stroke="none" stroke-width="1" fill="none" fill-rule="evenodd">
        <g id="company-page-v1" transform="translate(-614.000000, -130.000000)">
            <g id="about-gitlab-header" transform="translate(617.000000, 133.000000)">
                <polygon id="Fill-1" fill="#E24329" points="183.945949 95.733825 183.945949 95.733825 193.739575 65.902375 174.152873 65.902375"></polygon>
                <polygon id="Fill-2" fill="#FC6D26" points="183.938972 95.733825 174.145346 65.902375 160.432292 65.902375"></polygon>
                <g id="Group-77">
                    <path d="M160.427897,65.91244 L157.447395,74.97589 C157.177639,75.79979 157.468822,76.70784 158.181945,77.22099 L183.934027,95.74389 L160.427897,65.91244 Z" id="Fill-3" fill="#FCA326"></path>
                    <path d="M160.431138,65.91244 L174.154631,65.91244 L168.248568,47.94559 C167.946397,47.02599 166.628933,47.02599 166.316324,47.94559 L160.431138,65.91244 Z" id="Fill-5" fill="#E24329"></path>
                    <polygon id="Fill-7" fill="#FC6D26" points="183.945949 95.733825 193.739575 65.902375 207.463617 65.902375"></polygon>
                    <path d="M207.453233,65.91244 L210.433734,74.97589 C210.70349,75.79979 210.412308,76.70784 209.699185,77.22099 L183.947103,95.73344 L207.453233,65.91244 Z" id="Fill-9" fill="#FCA326"></path>
                    <path d="M207.46076,65.91244 L193.737267,65.91244 L199.632342,47.94559 C199.935062,47.02599 201.251977,47.02599 201.565135,47.94559 L207.46076,65.91244 Z" id="Fill-11" fill="#E24329"></path>
                    <polygon id="Stroke-13" stroke="#251B3F" stroke-width="4.4" stroke-linecap="round" stroke-linejoin="round" points="183.945949 95.733825 183.945949 95.733825 193.739575 65.902375 174.152873 65.902375"></polygon>
                    <polygon id="Stroke-15" stroke="#251B3F" stroke-width="4.4" stroke-linecap="round" stroke-linejoin="round" points="183.938972 95.733825 174.145346 65.902375 160.432292 65.902375"></polygon>
                    <path d="M160.427897,65.91244 L157.447395,74.97589 C157.177639,75.79979 157.468822,76.70784 158.181945,77.22099 L183.934027,95.74389 L160.427897,65.91244 Z" id="Stroke-17" stroke="#251B3F" stroke-width="4.4" stroke-linecap="round" stroke-linejoin="round"></path>
                    <path d="M160.431138,65.91244 L174.154631,65.91244 L168.248568,47.94559 C167.946397,47.02599 166.628933,47.02599 166.316324,47.94559 L160.431138,65.91244 Z" id="Stroke-19" stroke="#251B3F" stroke-width="4.4" stroke-linecap="round" stroke-linejoin="round"></path>
                    <polygon id="Stroke-21" stroke="#251B3F" stroke-width="4.4" stroke-linecap="round" stroke-linejoin="round" points="183.945949 95.733825 193.739575 65.902375 207.463617 65.902375"></polygon>
                    <path d="M207.453233,65.91244 L210.433734,74.97589 C210.70349,75.79979 210.412308,76.70784 209.699185,77.22099 L183.947103,95.73344 L207.453233,65.91244 Z" id="Stroke-23" stroke="#251B3F" stroke-width="4.4" stroke-linecap="round" stroke-linejoin="round"></path>
                    <path d="M207.46076,65.91244 L193.737267,65.91244 L199.632342,47.94559 C199.935062,47.02599 201.251977,47.02599 201.565135,47.94559 L207.46076,65.91244 Z" id="Stroke-25" stroke="#251B3F" stroke-width="4.4" stroke-linecap="round" stroke-linejoin="round"></path>
                    <path d="M36.1516427,105.05 L44.2608043,105.05" id="Stroke-27" stroke="#FC6D26" stroke-width="4.4" stroke-linecap="round" stroke-linejoin="round"></path>
                    <path d="M53.8644472,105.05 L79.7373978,105.05" id="Stroke-29" stroke-opacity="0.4" stroke="#000000" stroke-width="4.4" stroke-linecap="round" stroke-linejoin="round"></path>
                    <path d="M54.0839329,120.845835 L104.36568,120.845835" id="Stroke-31" stroke="#FC6D26" stroke-width="4.4" stroke-linecap="round" stroke-linejoin="round"></path>
                    <path d="M209.995807,16.89479 C187.530792,6.15274 159.811853,10.09074 141.205283,28.71814 C122.598163,47.34499 118.66445,75.09414 129.394805,97.58364" id="Stroke-33" stroke="#251B3F" stroke-width="4.4" stroke-linecap="round" stroke-linejoin="round"></path>
                    <path d="M157.885323,126.10521 C180.350338,136.84726 208.069276,132.90926 226.675847,114.28186 C245.282967,95.65501 249.216679,67.90586 238.486324,45.41636" id="Stroke-35" stroke="#251B3F" stroke-width="4.4" stroke-linecap="round" stroke-linejoin="round"></path>
                    <path d="M223.641229,93.41783 C233.152463,76.17148 230.60434,54.04113 215.991916,39.41388 C201.380042,24.78553 179.274336,22.23408 162.046762,31.75623" id="Stroke-37" stroke-opacity="0.3" stroke="#000000" stroke-width="4.4" stroke-linecap="round" stroke-linejoin="round"></path>
                    <path d="M144.2399,49.58217 C134.728667,66.82852 137.27679,88.95887 151.889213,103.58612 C166.501087,118.21447 188.606794,120.76592 205.834367,111.24377" id="Stroke-39" stroke-opacity="0.3" stroke="#000000" stroke-width="4.4" stroke-linecap="round" stroke-linejoin="round"></path>
                    <path d="M238.682735,11.429165 L332.916029,11.429165" id="Stroke-41" stroke-opacity="0.4" stroke="#000000" stroke-width="4.4" stroke-linecap="round" stroke-linejoin="round"></path>
                    <path d="M276.547411,27.621385 L285.513638,27.621385" id="Stroke-43" stroke="#251B3F" stroke-width="4.4" stroke-linecap="round" stroke-linejoin="round"></path>
                    <path d="M338.629746,27.621385 L356.386393,27.621385" id="Stroke-45" stroke="#FC6D26" stroke-width="4.4" stroke-linecap="round" stroke-linejoin="round"></path>
                    <path d="M295.227052,27.621385 L328.916333,27.621385" id="Stroke-47" stroke-opacity="0.3" stroke="#000000" stroke-width="4.4" stroke-linecap="round" stroke-linejoin="round"></path>
                    <path d="M363.228855,114.95 L305.724131,114.95 C303.787491,114.95 302.217303,113.37865 302.217303,111.43935 L302.217303,61.7804 C302.217303,59.8422 303.787491,58.2703 305.724131,58.2703 L363.228855,58.2703 C365.165494,58.2703 366.735683,59.8422 366.735683,61.7804 L366.735683,111.43935 C366.735683,113.37865 365.165494,114.95 363.228855,114.95 Z" id="Stroke-49" stroke="#251B3F" stroke-width="4.4" stroke-linecap="round" stroke-linejoin="round"></path>
                    <polygon id="Stroke-51" stroke-opacity="0.4" stroke="#000000" stroke-width="4.4" stroke-linecap="round" stroke-linejoin="round" points="310.234769 107.327 358.718326 107.327 358.718326 65.89385 310.234769 65.89385"></polygon>
                    <path d="M317.474009,95.280515 C317.474009,87.390215 326.699005,85.986065 326.699005,82.907715 C326.699005,81.413365 325.504607,80.785815 324.399761,80.785815 C323.444901,80.785815 322.638381,81.293465 322.131283,81.831365 C321.385196,82.549115 320.608343,82.848315 319.802921,82.189965 L318.63819,81.263765 C317.803101,80.605965 317.593229,79.859615 318.219547,79.052215 C319.265057,77.677215 321.324762,75.854515 324.878289,75.854515 C328.370833,75.854515 332.161151,77.856515 332.161151,82.399515 C332.161151,89.063865 323.534454,90.348665 323.265247,93.098665 L330.848632,93.098665 C331.922711,93.098665 332.490243,93.666265 332.490243,94.742065 L332.490243,95.937765 C332.490243,97.013565 331.922711,97.581715 330.848632,97.581715 L319.235939,97.581715 C318.219547,97.581715 317.474009,97.013565 317.474009,95.937765 L317.474009,95.280515 Z" id="Fill-53" fill="#FCA326"></path>
                    <path d="M334.909971,95.280515 C334.909971,87.390215 344.134417,85.986065 344.134417,82.907715 C344.134417,81.413365 342.940018,80.785815 341.835722,80.785815 C340.880313,80.785815 340.073792,81.293465 339.567794,81.831365 C338.820608,82.549115 338.044854,82.848315 337.238333,82.189965 L336.074701,81.263765 C335.238512,80.605965 335.02974,79.859615 335.656057,79.052215 C336.701568,77.677215 338.761273,75.854515 342.313701,75.854515 C345.806244,75.854515 349.598212,77.856515 349.598212,82.399515 C349.598212,89.063865 340.969866,90.348665 340.702307,93.098665 L348.284044,93.098665 C349.359222,93.098665 349.926753,93.666265 349.926753,94.742065 L349.926753,95.937765 C349.926753,97.013565 349.359222,97.581715 348.284044,97.581715 L336.671351,97.581715 C335.656057,97.581715 334.909971,97.013565 334.909971,95.937765 L334.909971,95.280515 Z" id="Fill-55" fill="#FCA326"></path>
                    <path d="M314.725959,56.754225 L314.725959,54.118075 C314.725959,53.390425 315.315467,52.800275 316.042325,52.800275 L318.675605,52.800275 C319.403561,52.800275 319.993069,53.390425 319.993069,54.118075 L319.993069,56.754225 L314.725959,56.754225 Z" id="Fill-57" fill="#251B3F"></path>
                    <path d="M348.959972,56.754225 L348.959972,54.118075 C348.959972,53.390425 349.54948,52.800275 350.276887,52.800275 L352.910167,52.800275 C353.637574,52.800275 354.227081,53.390425 354.227081,54.118075 L354.227081,56.754225 L348.959972,56.754225 Z" id="Fill-59" fill="#251B3F"></path>
                    <polygon id="Fill-61" fill="#FCA326" points="41.839868 64.57825 28.0537437 60.0941 44.8511359 8.33965 58.6372602 12.8238"></polygon>
                    <polygon id="Stroke-63" stroke="#251B3F" stroke-width="4.4" stroke-linecap="round" stroke-linejoin="round" points="41.839868 64.57825 28.0537437 60.0941 44.8511359 8.33965 58.6372602 12.8238"></polygon>
                    <polygon id="Stroke-65" stroke="#251B3F" stroke-width="4.4" stroke-linecap="round" stroke-linejoin="round" points="30.187618 77 28.0548425 60.09465 41.8387692 64.57825"></polygon>
                    <polygon id="Fill-67" fill="#251B3F" points="31.5987 73.886395 30.6965832 69.545245 34.3544964 70.735445"></polygon>
                    <path d="M58.6373701,12.82402 L44.8512458,8.33987 L46.9911635,2.24642 C47.6422039,0.37807 50.0403401,-0.49808 52.3472757,0.28897 L57.5687847,2.06932 C59.8757204,2.85582 61.2184569,5.00797 60.5674165,6.87577 L58.6373701,12.82402 Z" id="Stroke-69" stroke="#251B3F" stroke-width="4.4" stroke-linecap="round" stroke-linejoin="round"></path>
                    <path d="M49.504674,17.482355 L37.1881979,55.430155" id="Stroke-71" stroke-opacity="0.3" stroke="#000000" stroke-width="4.4" stroke-linecap="round" stroke-linejoin="round"></path>
                    <path d="M15.155287,21.82598 L2.34270165,34.65198 L1.06149805,35.93458 C-0.353759431,37.35193 -0.353759431,39.64818 1.06149805,41.06498 L2.34270165,42.34813 L15.155287,55.17413 C16.5699951,56.59093 18.8648439,56.59093 20.2801013,55.17413 C21.6948094,53.75788 21.6948094,51.46053 20.2801013,50.04373 L8.74871961,38.49978 L20.2801013,26.95638 C21.6948094,25.53958 21.6948094,23.24223 20.2801013,21.82598 C18.8648439,20.40918 16.5699951,20.40918 15.155287,21.82598 Z" id="Stroke-73" stroke-opacity="0.3" stroke="#000000" stroke-width="4.4" stroke-linecap="round" stroke-linejoin="round"></path>
                    <path d="M73.6300343,55.17402 L86.4426196,42.34802 L87.7238232,41.06542 C89.1390807,39.64807 89.1390807,37.35182 87.7238232,35.93502 L86.4426196,34.65187 L73.6300343,21.82587 C72.2153262,20.40907 69.9204774,20.40907 68.5052199,21.82587 C67.0905118,23.24212 67.0905118,25.53947 68.5052199,26.95627 L80.0366016,38.50022 L68.5052199,50.04362 C67.0905118,51.46042 67.0905118,53.75777 68.5052199,55.17402 C69.9204774,56.59082 72.2153262,56.59082 73.6300343,55.17402 Z" id="Stroke-75" stroke-opacity="0.3" stroke="#000000" stroke-width="4.4" stroke-linecap="round" stroke-linejoin="round"></path>
                </g>
            </g>
        </g>
    </g>
</svg>